How I would've lost all of my money if I bet on the NCAA bracket (with machine learning) - Denny Nguyen's Github Site
…
xgb_grid <- grid_latin_hypercube(
  trees(),
  tree_depth(),
  min_n(),
  loss_reduction(),
  sample_size = sample_prop(),
  finalize(mtry(), bracket_train),
  learn_rate(),
  size = 30
)

xgb_grid

## # A tibble: 30 x 7
##    trees tree_depth min_n loss_reduction sample_size  mtry learn_rate
##    <int>      <int> <int>          <dbl>       <dbl> <int>      <dbl>
##  1   237          3    19 0.555                0.387    17   5.38e- 8
##  2   484          2    37 0.000000000905       0.426    12   8.10e- 4
##  3  1112          8    29 0.00000000255        0.692    11   7.97e- 6
##  4  1648          6    24 0.271                0.834    15   2.41e- 4
##  5  1160          6     7 9.50                 0.186     1   4.87e- 2
##  6  1004         10    26 0.0644               0.467     9   2.16e- 3
##  7  1367         12    30 0.000000228          0.795     5   6.02e- 6
##  8   348         10    13 0.0000000956         0.873     9   6.33e- 9
##  9   165          4    12 0.00000684           0.929     8   3.62e-10
## 10   561          7     2 0.000821             0.895    13   5.89e- 3
## # … with 20 more rows
…
